Mapa flipbook
…
---
background-image: url(https://wallpapers.wallhaven.cc/wallpapers/full/wallhaven-711720.jpg)
background-size: cover

---
## Dados Imobiliários 

+ Valor de Locação

```
  # A tibble: 75 x 5
     regional     bairro              quarto apartamento  casa
     <chr>        <chr>                <dbl>       <dbl> <dbl>
   1 " PORTÃO"    ÁGUA VERDE               2        1100  675 
   2 " MATRIZ"    JARDIM SOCIAL           NA          NA   NA 
   3 " BOQUEIRÃO" XAXIM                    2         950  750 
   4 " CAJURU"    JARDIM DAS AMÉRICAS      2         950 1500 
   5 " PORTÃO"    GUAÍRA                   2        1100  550 
   6 " BOA VISTA" BAIRRO ALTO              2         750  700 
   7 " MATRIZ"    SÃO FRANCISCO            2        1280 1238.
   8 " MATRIZ"    ALTO DA GLÓRIA          NA          NA   NA 
   9 " BOA VISTA" ATUBA                    2         750  900 
  10 " MATRIZ"    CABRAL                  NA          NA   NA 
  # … with 65 more rows
```
…
---

---
## Dados Imobiliários com Polígono

```
  # A tibble: 75 x 5
     regional     bairro              quarto apartamento  casa
     <chr>        <chr>                <dbl>       <dbl> <dbl>
   1 " PORTÃO"    ÁGUA VERDE               2        1100  675 
   2 " MATRIZ"    JARDIM SOCIAL           NA          NA   NA 
   3 " BOQUEIRÃO" XAXIM                    2         950  750 
   4 " CAJURU"    JARDIM DAS AMÉRICAS      2         950 1500 
   5 " PORTÃO"    GUAÍRA                   2        1100  550 
   6 " BOA VISTA" BAIRRO ALTO              2         750  700 
   7 " MATRIZ"    SÃO FRANCISCO            2        1280 1238.
   8 " MATRIZ"    ALTO DA GLÓRIA          NA          NA   NA 
   9 " BOA VISTA" ATUBA                    2         750  900 
  10 " MATRIZ"    CABRAL                  NA          NA   NA 
  # … with 65 more rows
```
…
---

# Escala (Qual paletta descreve melhor )

<img src="./img/gg_escala.png" width="100%" height="100%" style="display: block; margin: auto;" />

---
# Considerações Escala

---
## Mercado Imobiliário (Diferentes Quartos) 

```
  # A tibble: 99 x 3
     bairro         quarto     apartamento
     <chr>          <chr>            <dbl>
   1 ABRANCHES      Quarto:  1        650 
   2 ÁGUA VERDE     Quarto:  1       1150 
   3 ÁGUA VERDE     Quarto:  2       1100 
   4 AHÚ            Quarto:  1       1200 
   5 ALTO BOQUEIRÃO Quarto:  1        600 
   6 ALTO BOQUEIRÃO Quarto:  2        750 
   7 ALTO DA RUA XV Quarto:  2       1094.
   8 ATUBA          Quarto:  1        770 
   9 ATUBA          Quarto:  2        750 
  10 AUGUSTA        Quarto:  2        670 
  # … with 89 more rows
```
…
background-image: url(https://wallpapers.wallhaven.cc/wallpapers/full/wallhaven-596722.jpg)
background-size: cover

---
# EventBrite

```
  Simple feature collection with 106 features and 4 fields
  geometry type:  POINT
  dimension:      XY
  bbox:           xmin: -49.36726 ymin: -25.56672 xmax: -49.22387 ymax: -25.38577
  epsg (SRID):    4326
  proj4string:    +proj=longlat +datum=WGS84 +no_defs
  # A tibble: 106 x 5
     title         data       tag_category  gratuito                 geometry
     <chr>         <date>     <chr>         <chr>                 <POINT [°]>
   1 PALESTRA GRA… 2019-04-08 Negócios      Sim          (-49.28203 -25.4494)
   2 Workshop de … 2019-03-23 Saúde         Não         (-49.29301 -25.44788)
   3 Maquiagem e … 2019-03-09 Moda e Beleza Sim          (-49.2754 -25.45029)
   4 EMC Concept … 2019-06-03 Moda e Beleza Não         (-49.27912 -25.44277)
   5 Empreenda Ma… 2019-03-14 Negócios      Sim         (-49.27718 -25.44322)
   6 Formação Mov… 2019-06-08 Saúde         Não         (-49.23334 -25.45988)
   7 WORKSHOP ENT… 2019-07-14 Moda e Beleza Não         (-49.23162 -25.45632)
   8 Yôga (100% G… 2019-03-10 Saúde         Sim         (-49.27644 -25.42139)
   9 Open Data Da… 2019-03-09 Ciência e Te… Sim         (-49.27224 -25.42481)
  10 PALESTRA | C… 2019-03-30 Negócios      Sim          (-49.2722 -25.42782)
  # … with 96 more rows
```
…
